{
    "component": "SN20USBHY0000392",
    "date": "2023-07-19T14:14:32.000Z",
    "passed": true,
    "problems": false,
    "properties": {
        "AMAC_CURRENT_RANGE": [
            0,
            0,
            0,
            0,
            0,
            0,
            0,
            0,
            0,
            0,
            0,
            0,
            0,
            0,
            0,
            0,
            0,
            0,
            0,
            0,
            0,
            0,
            0,
            0,
            0,
            0,
            0,
            0,
            0,
            0,
            0,
            0,
            0,
            0,
            0,
            0,
            0,
            0,
            0,
            0,
            0,
            0,
            0,
            0,
            0,
            0,
            0,
            0,
            0,
            0,
            0,
            0,
            0,
            0
        ],
        "AMAC_READINGS": 1000,
        "DCS": {
            "ABC_temp_raw_1": 2872.0,
            "ABC_temp_raw_10": 3067.0,
            "ABC_temp_raw_2": 2920.0,
            "ABC_temp_raw_3": 2844.0,
            "ABC_temp_raw_4": 3026.0,
            "ABC_temp_raw_5": 3012.0,
            "ABC_temp_raw_6": 3118.0,
            "ABC_temp_raw_7": 2858.0,
            "ABC_temp_raw_8": 2706.0,
            "ABC_temp_raw_9": 2807.0,
            "AMAC_AM600BG": 596.7669067382813,
            "AMAC_AM900BG": 887.8280639648438,
            "AMAC_AMref": 108.91911315917969,
            "AMAC_BG600": 644.36181640625,
            "AMAC_CAL": -4.576433181762695,
            "AMAC_CALx": 6.407006740570068,
            "AMAC_CALy": 7.322293281555176,
            "AMAC_CHIPGND": 0.0,
            "AMAC_CTAT": 522.628662109375,
            "AMAC_Cur10V": 839.31787109375,
            "AMAC_Cur1V5": 892.4044799804688,
            "AMAC_DCDCin": 10832.41796875,
            "AMAC_DCDCinHigh": 879.5904541015625,
            "AMAC_DCDCinLow": 865.8612060546875,
            "AMAC_DCDCoutHigh": 879.5904541015625,
            "AMAC_DCDCoutLow": 853.0471801757813,
            "AMAC_HGND": 0.0,
            "AMAC_HVret": 160.09693908691406,
            "AMAC_HVret_V": -18.30573272705078,
            "AMAC_Hrefx": 4.576433181762695,
            "AMAC_Hrefy": 3.661146640777588,
            "AMAC_NTCpb": -19.2627010345459,
            "AMAC_NTCpb_V": 291.0611572265625,
            "AMAC_NTCx": -28.129323959350586,
            "AMAC_NTCx_V": 268.1789855957031,
            "AMAC_NTCy": -29.1441707611084,
            "AMAC_NTCy_V": 282.8235778808594,
            "AMAC_PTAT_V": 1030.61279296875,
            "AMAC_Shuntx": 0.0,
            "AMAC_Shunty": 0.0,
            "AMAC_VDCDC": 1297.87646484375,
            "AMAC_VDDHI": 3338.9658203125,
            "AMAC_VDDLRhigh": 772.501953125,
            "AMAC_VDDLRlow": 772.501953125,
            "AMAC_VREG": 1217.7889404296875,
            "HCC_temp_raw": 422.0,
            "HCC_temp_rough_cal": 19.342010498046875,
            "Module 0-9_HV_current": 37000.0,
            "Module 0-9_HV_voltage": -346000.0,
            "Module 0-9_LV_current": 471.0,
            "Module 0-9_LV_voltage": 11001.0
        },
        "det_info": {
            "AMAC_FuseID": "401445",
            "Address": [
                0,
                1,
                2,
                3,
                4,
                5,
                6,
                7,
                8,
                9
            ],
            "Module 0-9_HV_model": "ITKHV",
            "Module 0-9_LV_model": "CPX400DP",
            "Module 0-9_LV_serial": "394124",
            "name": "SN20USBHY0000392"
        },
        "scan_info": {
            "AMAC_ILIMIT": 20,
            "PS_ILIMIT": 20,
            "SET_VOLTAGE": [
                0.0,
                -10.0,
                -20.0,
                -30.0,
                -40.0,
                -50.0,
                -60.0,
                -70.0,
                -80.0,
                -90.0,
                -100.0,
                -110.0,
                -120.0,
                -130.0,
                -140.0,
                -150.0,
                -160.0,
                -170.0,
                -180.0,
                -190.0,
                -200.0,
                -210.0,
                -220.0,
                -230.0,
                -240.0,
                -250.0,
                -260.0,
                -270.0,
                -280.0,
                -290.0,
                -300.0,
                -310.0,
                -320.0,
                -330.0,
                -340.0,
                -350.0,
                -360.0,
                -370.0,
                -380.0,
                -390.0,
                -400.0,
                -410.0,
                -420.0,
                -430.0,
                -440.0,
                -450.0,
                -460.0,
                -470.0,
                -480.0,
                -490.0,
                -500.0,
                -500.0,
                -500.0,
                -500.0
            ]
        },
        "sensor_type": "UNKNOWN",
        "system_info": {
            "Firmware revision": "0xb5a6",
            "GIT URL": "https://gitlab.cern.ch/atlas-itk-strips-daq/itsdaq-sw.git/-/tree/ebe0d9cfacb77524c93f9225cd485179c55b4700",
            "GIT branch": "bham_ppb2_20230717",
            "GIT build date": "2023-07-18 15:18:37 +0000 (Tue, 18 Jul 2023)",
            "GIT commit date": "2023-07-18 15:12:17 +0000 (Tue, 18 Jul 2023)",
            "GIT describe": "itsdaq_23_3_2023-455-gebe0d9cf",
            "GIT revision": "ebe0d9cfacb77524c93f9225cd485179c55b4700",
            "analysis_version": "3.43",
            "dedication": "New dedication as we're going for PPA"
        }
    },
    "results": {
        "CURRENT": [
            2.9691708087921143,
            1667.9757080078125,
            2369.369384765625,
            2601.94140625,
            2563.916015625,
            2523.38671875,
            2491.638671875,
            2452.484130859375,
            2438.1875,
            2411.7802734375,
            2404.471923828125,
            2393.970703125,
            2382.29833984375,
            2378.01025390625,
            2370.125,
            2373.95166015625,
            2369.986572265625,
            2363.90283203125,
            2360.3994140625,
            2365.310302734375,
            2366.98193359375,
            2373.279296875,
            2360.66162109375,
            2366.4248046875,
            2354.41796875,
            2357.6875,
            2357.28955078125,
            2375.390869140625,
            2374.0888671875,
            2379.337646484375,
            2382.25390625,
            2389.52734375,
            2394.528076171875,
            2404.98583984375,
            2409.81689453125,
            2417.28466796875,
            2424.42138671875,
            2422.56884765625,
            2428.655029296875,
            2434.4873046875,
            2429.9501953125,
            2442.635986328125,
            2442.831298828125,
            2448.60302734375,
            2451.998779296875,
            2454.489013671875,
            2464.65966796875,
            2459.64599609375,
            2467.70166015625,
            2465.884765625,
            2462.4111328125,
            2467.916015625,
            2471.632568359375,
            2467.35595703125
        ],
        "CURRENT_RMS": [
            1.4306880235671997,
            2.4659974575042725,
            2.443241834640503,
            2.484097480773926,
            4.672967910766602,
            2.483311891555786,
            2.415677785873413,
            2.456298828125,
            2.4824588298797607,
            2.617043972015381,
            3.656742572784424,
            2.45455002784729,
            2.334383010864258,
            2.4876835346221924,
            2.4989843368530273,
            2.4127724170684814,
            2.445451498031616,
            2.433502197265625,
            2.500488519668579,
            2.467978000640869,
            2.5444352626800537,
            2.387662649154663,
            2.464812994003296,
            2.4766695499420166,
            2.4714083671569824,
            2.4601857662200928,
            2.498250722885132,
            2.427337169647217,
            2.3877029418945313,
            2.48681640625,
            2.4243626594543457,
            2.5322988033294678,
            2.3689026832580566,
            2.4882586002349854,
            2.4767582416534424,
            2.4519031047821045,
            2.5002262592315674,
            2.471153974533081,
            2.450439453125,
            2.4527766704559326,
            2.4932610988616943,
            2.4141829013824463,
            2.532200336456299,
            2.4725356101989746,
            2.41351056098938,
            2.5358660221099854,
            2.3158082962036133,
            2.469743251800537,
            2.418036937713623,
            2.4937849044799805,
            2.433804512023926,
            2.456421375274658,
            2.506990432739258,
            2.3530139923095703
        ],
        "HUMIDITY": 0.0,
        "I_500V": 26.267671585083008,
        "PS_CURRENT": [
            0.0,
            3.0,
            6.0,
            7.0,
            9.0,
            11.0,
            12.0,
            13.0,
            15.0,
            15.0,
            17.0,
            18.0,
            20.0,
            20.0,
            22.0,
            23.0,
            25.0,
            25.0,
            27.0,
            28.0,
            28.0,
            29.0,
            29.0,
            30.0,
            30.0,
            31.0,
            31.0,
            33.0,
            33.0,
            34.0,
            36.0,
            37.0,
            36.0,
            38.0,
            39.0,
            39.0,
            41.0,
            41.0,
            42.0,
            43.0,
            44.0,
            45.0,
            46.0,
            48.0,
            48.0,
            49.0,
            50.0,
            51.0,
            52.0,
            54.0,
            55.0,
            55.0,
            55.0,
            55.0
        ],
        "TEMPERATURE": 0.0,
        "VBD": 9.990000452351092e+37,
        "VOLTAGE": [
            0.0,
            -7.0,
            -16.0,
            -27.0,
            -37.0,
            -47.0,
            -57.0,
            -67.0,
            -77.0,
            -86.0,
            -96.0,
            -107.0,
            -116.0,
            -127.0,
            -137.0,
            -147.0,
            -156.0,
            -166.0,
            -176.0,
            -186.0,
            -196.0,
            -206.0,
            -216.0,
            -226.0,
            -236.0,
            -246.0,
            -255.0,
            -266.0,
            -276.0,
            -286.0,
            -296.0,
            -306.0,
            -315.0,
            -325.0,
            -336.0,
            -346.0,
            -356.0,
            -366.0,
            -376.0,
            -386.0,
            -395.0,
            -405.0,
            -415.0,
            -425.0,
            -436.0,
            -446.0,
            -456.0,
            -466.0,
            -475.0,
            -485.0,
            -495.0,
            -495.0,
            -495.0,
            -495.0
        ]
    },
    "runNumber": "323-88",
    "testType": "UNKNOWN"
}
