{
    "component": "SN20USBHY0000392",
    "date": "2023-07-19T15:19:27.000Z",
    "passed": true,
    "problems": false,
    "properties": {
        "AMAC_CURRENT_RANGE": [
            0,
            0,
            0,
            0,
            0,
            0,
            0,
            0,
            0,
            0,
            0,
            0,
            0,
            0,
            0,
            0,
            0,
            0,
            0,
            0,
            0,
            0,
            0,
            0,
            0,
            0,
            0,
            0,
            0,
            0,
            0,
            0,
            0,
            0,
            0,
            0,
            0,
            0,
            0,
            0,
            0,
            0,
            0,
            0,
            0,
            0,
            0,
            0,
            0,
            0,
            0,
            0,
            0,
            0
        ],
        "AMAC_READINGS": 1000,
        "DCS": {
            "ABC_temp_raw_1": 2224.0,
            "ABC_temp_raw_10": 2393.0,
            "ABC_temp_raw_2": 2278.0,
            "ABC_temp_raw_3": 2231.0,
            "ABC_temp_raw_4": 2340.0,
            "ABC_temp_raw_5": 2294.0,
            "ABC_temp_raw_6": 2393.0,
            "ABC_temp_raw_7": 2225.0,
            "ABC_temp_raw_8": 2160.0,
            "ABC_temp_raw_9": 2255.0,
            "AMAC_AM600BG": 598.68017578125,
            "AMAC_AM900BG": 890.8590698242188,
            "AMAC_AMref": 106.94127655029297,
            "AMAC_BG600": 642.6025390625,
            "AMAC_CAL": -6.6838297843933105,
            "AMAC_CALx": 18.14182472229004,
            "AMAC_CALy": 20.051490783691406,
            "AMAC_CHIPGND": 0.0,
            "AMAC_CTAT": 415.352294921875,
            "AMAC_Cur10V": 800.14990234375,
            "AMAC_Cur1V5": 938.6007080078125,
            "AMAC_DCDCin": 10784.8369140625,
            "AMAC_DCDCinHigh": 874.6268920898438,
            "AMAC_DCDCinLow": 867.9430541992188,
            "AMAC_DCDCoutHigh": 813.517578125,
            "AMAC_DCDCoutLow": 781.0532836914063,
            "AMAC_HGND": 0.0,
            "AMAC_HVret": 2340.87744140625,
            "AMAC_HVret_V": 446.8617858886719,
            "AMAC_Hrefx": 5.728997230529785,
            "AMAC_Hrefy": 5.728997230529785,
            "AMAC_NTCpb": 44.827415466308594,
            "AMAC_NTCpb_V": 936.6910400390625,
            "AMAC_NTCx": 45.443748474121094,
            "AMAC_NTCx_V": 842.16259765625,
            "AMAC_NTCy": 45.13494110107422,
            "AMAC_NTCy_V": 878.4462280273438,
            "AMAC_PTAT_V": 1441.797607421875,
            "AMAC_Shuntx": 0.9548328518867493,
            "AMAC_Shunty": 0.9548328518867493,
            "AMAC_VDCDC": 1285.205078125,
            "AMAC_VDDHI": 3311.3603515625,
            "AMAC_VDDLRhigh": 751.4534301757813,
            "AMAC_VDDLRlow": 751.4534301757813,
            "AMAC_VREG": 1218.8441162109375,
            "HCC_temp_raw": 339.0,
            "HCC_temp_rough_cal": 72.37899780273438,
            "Module 0-9_HV_current": 40000.0,
            "Module 0-9_HV_voltage": -345000.0,
            "Module 0-9_LV_current": 520.0,
            "Module 0-9_LV_voltage": 11000.0
        },
        "det_info": {
            "AMAC_FuseID": "401445",
            "Address": [
                0,
                1,
                2,
                3,
                4,
                5,
                6,
                7,
                8,
                9
            ],
            "Module 0-9_HV_model": "ITKHV",
            "Module 0-9_LV_model": "CPX400DP",
            "Module 0-9_LV_serial": "394124",
            "name": "SN20USBHY0000392"
        },
        "scan_info": {
            "AMAC_ILIMIT": 20,
            "PS_ILIMIT": 20,
            "SET_VOLTAGE": [
                0.0,
                -10.0,
                -20.0,
                -30.0,
                -40.0,
                -50.0,
                -60.0,
                -70.0,
                -80.0,
                -90.0,
                -100.0,
                -110.0,
                -120.0,
                -130.0,
                -140.0,
                -150.0,
                -160.0,
                -170.0,
                -180.0,
                -190.0,
                -200.0,
                -210.0,
                -220.0,
                -230.0,
                -240.0,
                -250.0,
                -260.0,
                -270.0,
                -280.0,
                -290.0,
                -300.0,
                -310.0,
                -320.0,
                -330.0,
                -340.0,
                -350.0,
                -360.0,
                -370.0,
                -380.0,
                -390.0,
                -400.0,
                -410.0,
                -420.0,
                -430.0,
                -440.0,
                -450.0,
                -460.0,
                -470.0,
                -480.0,
                -490.0,
                -500.0,
                -500.0,
                -500.0,
                -500.0
            ]
        },
        "sensor_type": "UNKNOWN",
        "system_info": {
            "Firmware revision": "0xb5a6",
            "GIT URL": "https://gitlab.cern.ch/atlas-itk-strips-daq/itsdaq-sw.git/-/tree/ebe0d9cfacb77524c93f9225cd485179c55b4700",
            "GIT branch": "bham_ppb2_20230717",
            "GIT build date": "2023-07-18 15:18:37 +0000 (Tue, 18 Jul 2023)",
            "GIT commit date": "2023-07-18 15:12:17 +0000 (Tue, 18 Jul 2023)",
            "GIT describe": "itsdaq_23_3_2023-455-gebe0d9cf",
            "GIT revision": "ebe0d9cfacb77524c93f9225cd485179c55b4700",
            "analysis_version": "3.43",
            "dedication": "New dedication as we're going for PPA"
        }
    },
    "results": {
        "CURRENT": [
            -1.0884400606155396,
            143.9341278076172,
            144.7252960205078,
            143.4403533935547,
            147.03456115722656,
            142.0960693359375,
            142.9510955810547,
            142.42076110839844,
            141.85812377929688,
            143.8929443359375,
            146.1017608642578,
            147.36831665039063,
            142.67686462402344,
            145.068359375,
            145.69009399414063,
            145.10955810546875,
            144.94476318359375,
            143.6690216064453,
            143.90687561035156,
            143.22543334960938,
            144.23602294921875,
            144.09889221191406,
            143.8701171875,
            142.5350341796875,
            143.65541076660156,
            142.8368377685547,
            139.7823028564453,
            144.67050170898438,
            142.18751525878906,
            146.99795532226563,
            143.0242462158203,
            142.37954711914063,
            141.48780822753906,
            142.4298858642578,
            142.87322998046875,
            144.26803588867188,
            146.467529296875,
            143.60488891601563,
            146.63665771484375,
            142.68142700195313,
            144.95384216308594,
            142.32473754882813,
            144.87156677246094,
            142.28367614746094,
            144.83055114746094,
            145.86837768554688,
            145.02700805664063,
            143.12936401367188,
            143.51356506347656,
            144.15367126464844,
            143.86561584472656,
            144.53775024414063,
            143.5957794189453,
            143.65077209472656
        ],
        "CURRENT_RMS": [
            1.489109992980957,
            1.400118112564087,
            1.4264825582504272,
            1.3756099939346313,
            1.3898812532424927,
            1.4346935749053955,
            1.4176220893859863,
            1.3827840089797974,
            1.388107180595398,
            1.3511368036270142,
            1.362869143486023,
            1.4057369232177734,
            1.409583568572998,
            1.4302889108657837,
            1.4283511638641357,
            1.4245481491088867,
            1.4096990823745728,
            1.414933204650879,
            1.4039114713668823,
            1.3503696918487549,
            1.3676046133041382,
            1.405222773551941,
            1.4331510066986084,
            1.3526345491409302,
            1.3814198970794678,
            1.400591492652893,
            1.408059000968933,
            1.3659909963607788,
            1.4068711996078491,
            1.3864033222198486,
            1.3865238428115845,
            1.3721369504928589,
            1.4135652780532837,
            1.3833773136138916,
            1.3784716129302979,
            1.381106972694397,
            1.374114990234375,
            1.4188319444656372,
            1.38578462600708,
            1.394545555114746,
            1.3477343320846558,
            1.3894068002700806,
            1.4167269468307495,
            1.40315842628479,
            1.4091413021087646,
            1.3583009243011475,
            1.3576229810714722,
            1.3899976015090942,
            1.3666590452194214,
            1.4034321308135986,
            1.4045716524124146,
            1.3945187330245972,
            1.395553469657898,
            1.382398247718811
        ],
        "HUMIDITY": 0.0,
        "I_500V": 1.5481582880020142,
        "PS_CURRENT": [
            0.0,
            2.0,
            3.0,
            5.0,
            7.0,
            8.0,
            9.0,
            10.0,
            12.0,
            13.0,
            15.0,
            15.0,
            17.0,
            19.0,
            20.0,
            20.0,
            22.0,
            24.0,
            24.0,
            26.0,
            26.0,
            27.0,
            28.0,
            27.0,
            28.0,
            28.0,
            29.0,
            30.0,
            31.0,
            32.0,
            33.0,
            34.0,
            34.0,
            35.0,
            37.0,
            38.0,
            39.0,
            39.0,
            40.0,
            42.0,
            43.0,
            43.0,
            44.0,
            45.0,
            46.0,
            46.0,
            48.0,
            49.0,
            50.0,
            51.0,
            52.0,
            52.0,
            52.0,
            52.0
        ],
        "TEMPERATURE": 0.0,
        "VBD": 9.990000452351092e+37,
        "VOLTAGE": [
            0.0,
            -7.0,
            -17.0,
            -27.0,
            -37.0,
            -47.0,
            -57.0,
            -67.0,
            -77.0,
            -86.0,
            -96.0,
            -106.0,
            -116.0,
            -126.0,
            -136.0,
            -147.0,
            -156.0,
            -166.0,
            -176.0,
            -186.0,
            -196.0,
            -206.0,
            -217.0,
            -227.0,
            -236.0,
            -246.0,
            -256.0,
            -266.0,
            -276.0,
            -286.0,
            -296.0,
            -306.0,
            -315.0,
            -325.0,
            -335.0,
            -346.0,
            -356.0,
            -366.0,
            -376.0,
            -386.0,
            -395.0,
            -405.0,
            -415.0,
            -425.0,
            -436.0,
            -445.0,
            -456.0,
            -466.0,
            -475.0,
            -485.0,
            -495.0,
            -495.0,
            -495.0,
            -495.0
        ]
    },
    "runNumber": "323-105",
    "testType": "UNKNOWN"
}
